EESchema Schematic File Version 4
LIBS:MP2225-3V3-cache
EELAYER 30 0
EELAYER END
$Descr A4 11693 8268
encoding utf-8
Sheet 1 1
Title ""
Date ""
Rev ""
Comp ""
Comment1 ""
Comment2 ""
Comment3 ""
Comment4 ""
$EndDescr
$Comp
L My_Library:MP2225 U1
U 1 1 5D5A5EE3
P 4900 3150
F 0 "U1" H 4900 3615 50  0000 C CNN
F 1 "MP2225" H 4900 3524 50  0000 C CNN
F 2 "Package_TO_SOT_SMD:SOT-23-8_Handsoldering" H 4800 3100 50  0001 C CNN
F 3 "" H 4800 3100 50  0001 C CNN
	1    4900 3150
	1    0    0    -1  
$EndComp
$Comp
L Connector:Conn_01x06_Male J1
U 1 1 5D5A67C7
P 2900 1500
F 0 "J1" H 3008 1881 50  0000 C CNN
F 1 "HEADER" H 3008 1790 50  0000 C CNN
F 2 "Connector_PinHeader_2.54mm:PinHeader_1x06_P2.54mm_Vertical" H 2900 1500 50  0001 C CNN
F 3 "~" H 2900 1500 50  0001 C CNN
	1    2900 1500
	1    0    0    -1  
$EndComp
$Comp
L power:GND #PWR0101
U 1 1 5D5A6F6D
P 3250 2050
F 0 "#PWR0101" H 3250 1800 50  0001 C CNN
F 1 "GND" H 3255 1877 50  0000 C CNN
F 2 "" H 3250 2050 50  0001 C CNN
F 3 "" H 3250 2050 50  0001 C CNN
	1    3250 2050
	1    0    0    -1  
$EndComp
Wire Wire Line
	3250 2050 3250 1800
Wire Wire Line
	3250 1800 3100 1800
Wire Wire Line
	3100 1700 3250 1700
Wire Wire Line
	3250 1700 3250 1800
Connection ~ 3250 1800
Wire Wire Line
	3100 1600 3250 1600
Wire Wire Line
	3250 1600 3250 1700
Connection ~ 3250 1700
Wire Wire Line
	4350 1300 4350 2400
Wire Wire Line
	4350 2950 4550 2950
Wire Wire Line
	3100 1300 3650 1300
$Comp
L Device:CP_Small C1
U 1 1 5D5A8109
P 3650 1500
F 0 "C1" H 3738 1546 50  0000 L CNN
F 1 "22u" H 3738 1455 50  0000 L CNN
F 2 "Capacitor_THT:CP_Radial_Tantal_D5.0mm_P2.50mm" H 3650 1500 50  0001 C CNN
F 3 "~" H 3650 1500 50  0001 C CNN
	1    3650 1500
	1    0    0    -1  
$EndComp
$Comp
L power:GND #PWR0102
U 1 1 5D5A84CB
P 3650 1600
F 0 "#PWR0102" H 3650 1350 50  0001 C CNN
F 1 "GND" H 3655 1427 50  0000 C CNN
F 2 "" H 3650 1600 50  0001 C CNN
F 3 "" H 3650 1600 50  0001 C CNN
	1    3650 1600
	1    0    0    -1  
$EndComp
Wire Wire Line
	4000 1400 4000 1300
Connection ~ 4000 1300
Wire Wire Line
	4000 1300 4350 1300
Wire Wire Line
	3650 1400 3650 1300
Connection ~ 3650 1300
Wire Wire Line
	3650 1300 4000 1300
$Comp
L Device:C_Small C2
U 1 1 5D5AA044
P 4000 1500
F 0 "C2" H 4092 1546 50  0000 L CNN
F 1 "100n" H 4092 1455 50  0000 L CNN
F 2 "Capacitor_SMD:C_1206_3216Metric_Pad1.42x1.75mm_HandSolder" H 4000 1500 50  0001 C CNN
F 3 "~" H 4000 1500 50  0001 C CNN
	1    4000 1500
	1    0    0    -1  
$EndComp
$Comp
L power:GND #PWR0103
U 1 1 5D5AA31C
P 4000 1600
F 0 "#PWR0103" H 4000 1350 50  0001 C CNN
F 1 "GND" H 4005 1427 50  0000 C CNN
F 2 "" H 4000 1600 50  0001 C CNN
F 3 "" H 4000 1600 50  0001 C CNN
	1    4000 1600
	1    0    0    -1  
$EndComp
$Comp
L Device:R R1
U 1 1 5D5AAA85
P 4000 2750
F 0 "R1" H 4070 2796 50  0000 L CNN
F 1 "100k" H 4070 2705 50  0000 L CNN
F 2 "Resistor_SMD:R_1206_3216Metric_Pad1.42x1.75mm_HandSolder" V 3930 2750 50  0001 C CNN
F 3 "~" H 4000 2750 50  0001 C CNN
	1    4000 2750
	1    0    0    -1  
$EndComp
Wire Wire Line
	4000 2900 4000 3100
Wire Wire Line
	4000 3100 4550 3100
Wire Wire Line
	4000 2600 4000 2400
Wire Wire Line
	4000 2400 4350 2400
Connection ~ 4350 2400
Wire Wire Line
	4350 2400 4350 2950
$Comp
L Device:C_Small C3
U 1 1 5D5ABB3A
P 4100 3500
F 0 "C3" H 4192 3546 50  0000 L CNN
F 1 "100n" H 4192 3455 50  0000 L CNN
F 2 "Capacitor_SMD:C_1206_3216Metric_Pad1.42x1.75mm_HandSolder" H 4100 3500 50  0001 C CNN
F 3 "~" H 4100 3500 50  0001 C CNN
	1    4100 3500
	1    0    0    -1  
$EndComp
$Comp
L power:GND #PWR0104
U 1 1 5D5ABFB3
P 4100 3600
F 0 "#PWR0104" H 4100 3350 50  0001 C CNN
F 1 "GND" H 4105 3427 50  0000 C CNN
F 2 "" H 4100 3600 50  0001 C CNN
F 3 "" H 4100 3600 50  0001 C CNN
	1    4100 3600
	1    0    0    -1  
$EndComp
Wire Wire Line
	4100 3400 4100 3250
Wire Wire Line
	4100 3250 4550 3250
$Comp
L power:GND #PWR0105
U 1 1 5D5AC8AA
P 4500 3500
F 0 "#PWR0105" H 4500 3250 50  0001 C CNN
F 1 "GND" H 4505 3327 50  0000 C CNN
F 2 "" H 4500 3500 50  0001 C CNN
F 3 "" H 4500 3500 50  0001 C CNN
	1    4500 3500
	1    0    0    -1  
$EndComp
Wire Wire Line
	4500 3500 4500 3400
Wire Wire Line
	4500 3400 4550 3400
$Comp
L power:GND #PWR0106
U 1 1 5D5AD1EB
P 5350 3500
F 0 "#PWR0106" H 5350 3250 50  0001 C CNN
F 1 "GND" H 5355 3327 50  0000 C CNN
F 2 "" H 5350 3500 50  0001 C CNN
F 3 "" H 5350 3500 50  0001 C CNN
	1    5350 3500
	1    0    0    -1  
$EndComp
Wire Wire Line
	5350 3500 5350 3400
Wire Wire Line
	5350 3400 5250 3400
$Comp
L Device:C_Small C4
U 1 1 5D5ADB83
P 5450 2950
F 0 "C4" V 5221 2950 50  0000 C CNN
F 1 "100n" V 5312 2950 50  0000 C CNN
F 2 "Capacitor_SMD:C_1206_3216Metric_Pad1.42x1.75mm_HandSolder" H 5450 2950 50  0001 C CNN
F 3 "~" H 5450 2950 50  0001 C CNN
	1    5450 2950
	0    1    1    0   
$EndComp
Wire Wire Line
	5350 2950 5250 2950
Wire Wire Line
	5250 3100 5650 3100
Wire Wire Line
	5550 2950 5650 2950
Wire Wire Line
	5650 2950 5650 3100
$Comp
L pspice:INDUCTOR L1
U 1 1 5D5AEF5F
P 6050 3100
F 0 "L1" H 6050 3315 50  0000 C CNN
F 1 "3.3uH" H 6050 3224 50  0000 C CNN
F 2 "Inductor_SMD:L_Bourns-SRR1005" H 6050 3100 50  0001 C CNN
F 3 "~" H 6050 3100 50  0001 C CNN
	1    6050 3100
	1    0    0    -1  
$EndComp
Wire Wire Line
	5800 3100 5650 3100
Connection ~ 5650 3100
$Comp
L Device:CP_Small C5
U 1 1 5D5AFA0C
P 6450 3300
F 0 "C5" H 6538 3346 50  0000 L CNN
F 1 "22u" H 6538 3255 50  0000 L CNN
F 2 "Capacitor_THT:CP_Radial_Tantal_D5.0mm_P2.50mm" H 6450 3300 50  0001 C CNN
F 3 "~" H 6450 3300 50  0001 C CNN
	1    6450 3300
	1    0    0    -1  
$EndComp
$Comp
L Device:CP_Small C6
U 1 1 5D5AFFC1
P 6800 3300
F 0 "C6" H 6888 3346 50  0000 L CNN
F 1 "22u" H 6888 3255 50  0000 L CNN
F 2 "Capacitor_THT:CP_Radial_Tantal_D5.0mm_P2.50mm" H 6800 3300 50  0001 C CNN
F 3 "~" H 6800 3300 50  0001 C CNN
	1    6800 3300
	1    0    0    -1  
$EndComp
$Comp
L power:GND #PWR0107
U 1 1 5D5B02A2
P 6450 3400
F 0 "#PWR0107" H 6450 3150 50  0001 C CNN
F 1 "GND" H 6455 3227 50  0000 C CNN
F 2 "" H 6450 3400 50  0001 C CNN
F 3 "" H 6450 3400 50  0001 C CNN
	1    6450 3400
	1    0    0    -1  
$EndComp
$Comp
L power:GND #PWR0108
U 1 1 5D5B0DD5
P 6800 3400
F 0 "#PWR0108" H 6800 3150 50  0001 C CNN
F 1 "GND" H 6805 3227 50  0000 C CNN
F 2 "" H 6800 3400 50  0001 C CNN
F 3 "" H 6800 3400 50  0001 C CNN
	1    6800 3400
	1    0    0    -1  
$EndComp
Wire Wire Line
	6450 3200 6450 3100
Wire Wire Line
	6450 3100 6300 3100
Wire Wire Line
	6800 3200 6800 3100
Wire Wire Line
	6800 3100 6450 3100
Connection ~ 6450 3100
Wire Wire Line
	6800 3100 6800 1150
Wire Wire Line
	6800 1150 3250 1150
Wire Wire Line
	3250 1150 3250 1400
Wire Wire Line
	3250 1400 3100 1400
Connection ~ 6800 3100
Wire Wire Line
	3100 1500 3250 1500
Wire Wire Line
	3250 1500 3250 1400
Connection ~ 3250 1400
$Comp
L Device:R R2
U 1 1 5D5B4496
P 7250 3550
F 0 "R2" H 7320 3596 50  0000 L CNN
F 1 "39k" H 7320 3505 50  0000 L CNN
F 2 "Resistor_SMD:R_1206_3216Metric_Pad1.42x1.75mm_HandSolder" V 7180 3550 50  0001 C CNN
F 3 "~" H 7250 3550 50  0001 C CNN
	1    7250 3550
	1    0    0    -1  
$EndComp
Wire Wire Line
	7250 3400 7250 3100
Wire Wire Line
	7250 3100 6800 3100
$Comp
L Device:R R3
U 1 1 5D5B652B
P 7250 4050
F 0 "R3" H 7320 4096 50  0000 L CNN
F 1 "9.1k" H 7320 4005 50  0000 L CNN
F 2 "Resistor_SMD:R_1206_3216Metric_Pad1.42x1.75mm_HandSolder" V 7180 4050 50  0001 C CNN
F 3 "~" H 7250 4050 50  0001 C CNN
	1    7250 4050
	1    0    0    -1  
$EndComp
Wire Wire Line
	7250 3900 7250 3800
Wire Wire Line
	7250 3800 5950 3800
Wire Wire Line
	5950 3800 5950 3250
Wire Wire Line
	5950 3250 5250 3250
Connection ~ 7250 3800
Wire Wire Line
	7250 3800 7250 3700
$Comp
L Device:C_Small C7
U 1 1 5D5B8B0A
P 7650 3550
F 0 "C7" H 7558 3504 50  0000 R CNN
F 1 "33p" H 7558 3595 50  0000 R CNN
F 2 "Capacitor_SMD:C_1206_3216Metric_Pad1.42x1.75mm_HandSolder" H 7650 3550 50  0001 C CNN
F 3 "~" H 7650 3550 50  0001 C CNN
	1    7650 3550
	-1   0    0    1   
$EndComp
Wire Wire Line
	7650 3650 7650 3800
Wire Wire Line
	7650 3800 7250 3800
Wire Wire Line
	7650 3450 7650 3100
Wire Wire Line
	7650 3100 7250 3100
Connection ~ 7250 3100
$Comp
L power:GND #PWR0109
U 1 1 5D5BA7FC
P 7250 4200
F 0 "#PWR0109" H 7250 3950 50  0001 C CNN
F 1 "GND" H 7255 4027 50  0000 C CNN
F 2 "" H 7250 4200 50  0001 C CNN
F 3 "" H 7250 4200 50  0001 C CNN
	1    7250 4200
	1    0    0    -1  
$EndComp
$EndSCHEMATC
